{
  "arrow_spacing" : {
    "level": "warn"
  },

  "missing_fat_arrows": {
    "level": "warn"
  },

  "newlines_after_classes": {
    "level": "warn"
  },

  "no_empty_param_list": {
    "level": "warn"
  },

  "no_interpolation_in_single_quotes": {
    "level": "warn"
  },

  "no_unnecessary_double_quotes": {
    "level": "warn"
  },

  "space_operators": {
    "level": "warn"
  },
  "colon_assignment_spacing" : {
    "spacing": {
      "left": 0,
      "right": 1
    },
    "level": "warn"
  }
}
